…
Example Satellite Data
========================================================

```r
data_path = obpg_path("nwa", "AQUA_MODIS", "L3m")
db = read_database(data_path)
db
```

```
# A tibble: 94,950 x 11
   date       year  mmdd  mit    lvl   per   suite param  res   nrt   file      
   <date>     <chr> <chr> <chr>  <chr> <chr> <chr> <chr>  <chr> <chr> <chr>     
 1 2004-01-01 2004  0101  AQUA_… L3m   DAY   CHL   chlor… 4km   <NA>  AQUA_MODI…
 2 2004-01-01 2004  0101  AQUA_… L3m   DAY   PAR   par    4km   <NA>  AQUA_MODI…
 3 2004-01-01 2004  0101  AQUA_… L3m   DAY   PIC   pic    4km   <NA>  AQUA_MODI…
 4 2004-01-01 2004  0101  AQUA_… L3m   DAY   POC   poc    4km   <NA>  AQUA_MODI…
 5 2004-01-01 2004  0101  AQUA_… L3m   DAY   SST   sst    4km   <NA>  AQUA_MODI…
 6 2004-01-02 2004  0102  AQUA_… L3m   DAY   CHL   chlor… 4km   <NA>  AQUA_MODI…
 7 2004-01-02 2004  0102  AQUA_… L3m   DAY   PAR   par    4km   <NA>  AQUA_MODI…
 8 2004-01-02 2004  0102  AQUA_… L3m   DAY   PIC   pic    4km   <NA>  AQUA_MODI…
 9 2004-01-02 2004  0102  AQUA_… L3m   DAY   POC   poc    4km   <NA>  AQUA_MODI…
10 2004-01-02 2004  0102  AQUA_… L3m   DAY   SST   sst    4km   <NA>  AQUA_MODI…
# … with 94,940 more rows
```

Pull SST December 2020
========================================================

```r
db_sst = db %>%
  filter(param == "sst" &
         per == "8DR" &
         between(date, as.Date("2020-12-01"), as.Date("2020-12-31")))
db_sst
```

```
# A tibble: 31 x 11
   date       year  mmdd  mit    lvl   per   suite param res   nrt   file       
   <date>     <chr> <chr> <chr>  <chr> <chr> <chr> <chr> <chr> <chr> <chr>      
 1 2020-12-01 2020  1201  AQUA_… L3m   8DR   SST   sst   4km   <NA>  AQUA_MODIS…
 2 2020-12-02 2020  1202  AQUA_… L3m   8DR   SST   sst   4km   <NA>  AQUA_MODIS…
 3 2020-12-03 2020  1203  AQUA_… L3m   8DR   SST   sst   4km   <NA>  AQUA_MODIS…
 4 2020-12-04 2020  1204  AQUA_… L3m   8DR   SST   sst   4km   <NA>  AQUA_MODIS…
 5 2020-12-05 2020  1205  AQUA_… L3m   8DR   SST   sst   4km   <NA>  AQUA_MODIS…
 6 2020-12-06 2020  1206  AQUA_… L3m   8DR   SST   sst   4km   <NA>  AQUA_MODIS…
 7 2020-12-07 2020  1207  AQUA_… L3m   8DR   SST   sst   4km   <NA>  AQUA_MODIS…
 8 2020-12-08 2020  1208  AQUA_… L3m   8DR   SST   sst   4km   <NA>  AQUA_MODIS…
 9 2020-12-09 2020  1209  AQUA_… L3m   8DR   SST   sst   4km   <NA>  AQUA_MODIS…
10 2020-12-10 2020  1210  AQUA_… L3m   8DR   SST   sst   4km   <NA>  AQUA_MODIS…
# … with 21 more rows
```
…
